<?xml version="1.0" encoding="UTF-8"?>
<svg viewBox="0 0 27 16" version="1.1" xmlns="http://www.w3.org/2000/svg" xmlns:xlink="http://www.w3.org/1999/xlink">
    <!-- Generator: Sketch 49.3 (51167) - http://www.bohemiancoding.com/sketch -->
    <title>Path 3</title>
    <desc>Created with Sketch.</desc>
    <defs></defs>
    <g id="Page-1" stroke="none" stroke-width="1" fill="none" fill-rule="evenodd">
        <g id="Research-Papers-Details-Pag" transform="translate(-335.000000, -122.000000)" fill="#FD9B57">
            <path d="M336,122 L360.99732,122 C361.549605,122 361.99732,122.447715 361.99732,123 C361.99732,123.182902 361.947158,123.362301 361.852291,123.518677 L357.679326,130.397261 C357.464262,130.751765 357.49028,131.202215 357.744728,131.529601 L361.51945,136.386337 C361.858367,136.822403 361.779612,137.450651 361.343546,137.789568 C361.16806,137.925958 360.952138,138 360.729882,138 L336.06431,138 C335.513818,138 335.066849,137.555079 335.06432,137.004593 L335.000011,123.004593 C334.997474,122.452315 335.443128,122.002547 335.995407,122.000011 C335.996938,122.000004 335.998469,122 336,122 Z" id="Path-3"></path>
        </g>
    </g>
</svg>